{"count":204,"next":"https://lldev.thespacedevs.com/2.2.0/launch/upcoming/?limit=5&offset=5","previous":null,"results":[{"id":"c0d1609f-edc0-4970-8dc1-1b80a5d8c4cb","url":"https://lldev.thespacedevs.com/2.2.0/launch/c0d1609f-edc0-4970-8dc1-1b80a5d8c4cb/","slug":"long-march-6a-unknown-payload","name":"Long March 6A | Unknown Payload","status":{"id":1,"name":"Go for Launch","abbrev":"Go","description":"Current T-0 confirmed by official or reliable sources."},"last_updated":"2026-04-02T05:09:21Z","net":"2026-04-08T19:35:00Z","window_end":"2026-04-08T19:46:00Z","window_start":"2026-04-08T19:30:00Z","net_precision":{"id":2,"name":"Hour","abbrev":"HR","description":"The T-0 is accurate to the hour."},"probability":null,"weather_concerns":null,"holdreason":"","failreason":"","hashtag":null,"launch_service_provider":{"id":88,"url":"https://lldev.thespacedevs.com/2.2.0/agencies/88/","name":"China Aerospace Science and Technology Corporation","type":"Government"},"rocket":{"id":8959,"configuration":{"id":478,"url":"https://lldev.thespacedevs.com/2.2.0/config/launcher/478/","name":"Long March 6A","family":"Long March","full_name":"Long March 6A","variant":"A"}},"mission":{"id":7554,"name":"Unknown Payload","description":"Details TBD.","launch_designator":null,"type":"Unknown","orbit":{"id":25,"name":"Unknown","abbrev":"N/A"},"agencies":[],"info_urls":[],"vid_urls":[]},"pad":{"id":200,"url":"https://lldev.thespacedevs.com/2.2.0/pad/200/","agency_id":null,"name":"Launch Complex 9A","description":"","info_url":null,"wiki_url":null,"map_url":"https://www.google.com/maps?q=38.8583,111.5802","latitude":"38.8583","longitude":"111.5802","location":{"id":19,"url":"https://lldev.thespacedevs.com/2.2.0/location/19/","name":"Taiyuan Satellite Launch Center, People's Republic of China","country_code":"CHN","description":"The Taiyuan Satellite Launch Center is a People's Republic of China space and defense launch facility. It is situated in Kelan County, Xinzhou, Shanxi Province and is the second of four launch sites having been founded in March 1966 and coming into full operation in 1968.","map_image":"https://thespacedevs-dev.nyc3.digitaloceanspaces.com/media/map_images/location_19_20200803142421.jpg","timezone_name":"Asia/Shanghai","total_launch_count":152,"total_landing_count":0},"country_code":"CHN","map_image":"https://thespacedevs-dev.nyc3.digitaloceanspaces.com/media/map_images/pad_launch_complex_9a_20220330003717.jpg","total_launch_count":22,"orbital_launch_attempt_count":22},"webcast_live":false,"image":"https://thespacedevs-dev.nyc3.digitaloceanspaces.com/media/images/long_march_6a__image_20251209050223.jpeg","infographic":null,"program":[],"orbital_launch_attempt_count":7255,"location_launch_attempt_count":153,"pad_launch_attempt_count":23,"agency_launch_attempt_count":584,"orbital_launch_attempt_count_year":82,"location_launch_attempt_count_year":4,"pad_launch_attempt_count_year":3,"agency_launch_attempt_count_year":14,"type":"normal"},{"id":"b31313da-ee5d-42b2-9a27-20cc18105276","url":"https://lldev.thespacedevs.com/2.2.0/launch/b31313da-ee5d-42b2-9a27-20cc18105276/","slug":"vega-c-solar-wind-magnetosphere-ionosphere-link-ex","name":"Vega-C | Solar wind Magnetosphere Ionosphere Link Explorer (SMILE)","status":{"id":1,"name":"Go for Launch","abbrev":"Go","description":"Current T-0 confirmed by official or reliable sources."},"last_updated":"2026-04-03T06:34:03Z","net":"2026-04-09T06:29:00Z","window_end":"2026-04-09T06:29:00Z","window_start":"2026-04-09T06:29:00Z","net_precision":{"id":1,"name":"Minute","abbrev":"MIN","description":"The T-0 is accurate to the minute."},"probability":null,"weather_concerns":null,"holdreason":"","failreason":"","hashtag":"VV29","launch_service_provider":{"id":159,"url":"https://lldev.thespacedevs.com/2.2.0/agencies/159/","name":"Avio S.p.A","type":"Commercial"},"rocket":{"id":7792,"configuration":{"id":127,"url":"https://lldev.thespacedevs.com/2.2.0/config/launcher/127/","name":"Vega-C","family":"Vega","full_name":"Vega-C","variant":""}},"mission":{"id":6309,"name":"Solar wind Magnetosphere Ionosphere Link Explorer (SMILE)","description":"Joint mission between the European Space Agency and the Chinese Academy of Sciences to investigate the interaction between Earth’s protective shield – the magnetosphere – and the supersonic solar wind.","launch_designator":null,"type":"Astrophysics","orbit":{"id":0,"name":"Elliptical Orbit","abbrev":"Elliptical"},"agencies":[{"id":1106,"url":"https://lldev.thespacedevs.com/2.2.0/agencies/1106/","name":"Chinese Academy of Sciences","featured":false,"type":"Government","country_code":"CHN","abbrev":"CAS","description":"The Chinese Academy of Sciences (CAS; Chinese: 中国科学院) is the national academy for natural sciences and the highest consultancy for science and technology of the People's Republic of China.","administrator":"President: Hou Jianguo","founding_year":"1949","launchers":"","spacecraft":"","launch_library_url":null,"total_launch_count":0,"consecutive_successful_launches":0,"successful_launches":0,"failed_launches":0,"pending_launches":0,"consecutive_successful_landings":0,"successful_landings":0,"failed_landings":0,"attempted_landings":0,"info_url":"https://www.cas.cn/","wiki_url":"https://en.wikipedia.org/wiki/Chinese_Academy_of_Sciences","logo_url":"https://thespacedevs-dev.nyc3.digitaloceanspaces.com/media/images/china_academy_o_image_20260403063134.png","image_url":null,"nation_url":"https://thespacedevs-dev.nyc3.digitaloceanspaces.com/media/images/china_academy_o_image_20260403063203.png"},{"id":27,"url":"https://lldev.thespacedevs.com/2.2.0/agencies/27/","name":"European Space Agency","featured":false,"type":"Multinational","country_code":"FRA,ITA,DEU,ESP,CHE,GBR,AUT,SWE,PRT,NLD,HUN,POL,DNK,CZE,ROU,NOR,FIN,GRC,EST,IRL,LUX,BEL,SVN","abbrev":"ESA","description":"The European Space Agency is an intergovernmental organisation of 22 member states. Established in 1975 and headquartered in Paris, France, ESA has a worldwide staff of about 2,000 employees.\r\n\r\nESA's space flight programme includes human spaceflight (mainly through participation in the International Space Station program); the launch and operation of unmanned exploration missions to other planets and the Moon; Earth observation, science and telecommunication; designing launch vehicles; and maintaining a major spaceport, the Guiana Space Centre at Kourou, French Guiana.","administrator":"Director General: Josef Aschbacher","founding_year":"1975","launchers":"Ariane | Vega","spacecraft":"Space Rider","launch_library_url":null,"total_launch_count":7,"consecutive_successful_launches":5,"successful_launches":6,"failed_launches":1,"pending_launches":1,"consecutive_successful_landings":0,"successful_landings":0,"failed_landings":0,"attempted_landings":0,"info_url":"https://www.esa.int/","wiki_url":"https://en.wikipedia.org/wiki/European_Space_Agency","logo_url":"https://thespacedevs-dev.nyc3.digitaloceanspaces.com/media/images/european2520space2520agency_logo_20221130101442.png","image_url":"https://thespacedevs-dev.nyc3.digitaloceanspaces.com/media/images/esa_patch_float_image_20250211192109.png","nation_url":"https://thespacedevs-dev.nyc3.digitaloceanspaces.com/media/images/european2520space2520agency_logo_20221130101442.png"}],"info_urls":[],"vid_urls":[]},"pad":{"id":34,"url":"https://lldev.thespacedevs.com/2.2.0/pad/34/","agency_id":115,"name":"Ariane Launch Area 1 (ELV)","description":"ELA-1, now named Ensemble de Lancement Vega (short ELV), is a launch pad at the Centre Spatial Guyanais in French Guiana. It has been used to support launches of the Europa rocket, Ariane 1, Ariane 3, and is currently used to launch Vega rockets.","info_url":null,"wiki_url":"https://en.wikipedia.org/wiki/ELA-1","map_url":"https://www.google.com/maps?q=5.236,-52.775","latitude":"5.236","longitude":"-52.775","location":{"id":13,"url":"https://lldev.thespacedevs.com/2.2.0/location/13/","name":"Guiana Space Centre, French Guiana","country_code":"GUF","description":"The Guiana Space Centre is a European spaceport to the northwest of Kourou in French Guiana, a region of France in South America. Kourou is located at a latitude of 5°. In operation since 1968, it is a suitable location for a spaceport because of its equatorial location and open sea to the east.","map_image":"https://thespacedevs-dev.nyc3.digitaloceanspaces.com/media/map_images/location_13_20200803142412.jpg","timezone_name":"America/Cayenne","total_launch_count":331,"total_landing_count":0},"country_code":"GUF","map_image":"https://thespacedevs-dev.nyc3.digitaloceanspaces.com/media/map_images/pad_34_20200803143527.jpg","total_launch_count":54,"orbital_launch_attempt_count":54},"webcast_live":false,"image":"https://thespacedevs-dev.nyc3.digitaloceanspaces.com/media/images/vega-c_image_20220713154437.jpg","infographic":null,"program":[],"orbital_launch_attempt_count":7256,"location_launch_attempt_count":332,"pad_launch_attempt_count":55,"agency_launch_attempt_count":1,"orbital_launch_attempt_count_year":83,"location_launch_attempt_count_year":2,"pad_launch_attempt_count_year":1,"agency_launch_attempt_count_year":1,"type":"normal"},{"id":"f6c9396f-5f02-49e6-a847-83e4c774e0e9","url":"https://lldev.thespacedevs.com/2.2.0/launch/f6c9396f-5f02-49e6-a847-83e4c774e0e9/","slug":"falcon-9-block-5-starlink-group-17-21","name":"Falcon 9 Block 5 | Starlink Group 17-21","status":{"id":1,"name":"Go for Launch","abbrev":"Go","description":"Current T-0 confirmed by official or reliable sources."},"last_updated":"2026-04-02T20:45:21Z","net":"2026-04-10T02:39:00Z","window_end":"2026-04-10T06:39:00Z","window_start":"2026-04-10T02:39:00Z","net_precision":{"id":1,"name":"Minute","abbrev":"MIN","description":"The T-0 is accurate to the minute."},"probability":null,"weather_concerns":null,"holdreason":"","failreason":"","hashtag":null,"launch_service_provider":{"id":121,"url":"https://lldev.thespacedevs.com/2.2.0/agencies/121/","name":"SpaceX","type":"Commercial"},"rocket":{"id":8954,"configuration":{"id":164,"url":"https://lldev.thespacedevs.com/2.2.0/config/launcher/164/","name":"Falcon 9","family":"Falcon","full_name":"Falcon 9 Block 5","variant":"Block 5"}},"mission":{"id":7549,"name":"Starlink Group 17-21","description":"A batch of 25 satellites for the Starlink mega-constellation - SpaceX's project for space-based Internet communication system.","launch_designator":null,"type":"Communications","orbit":{"id":8,"name":"Low Earth Orbit","abbrev":"LEO"},"agencies":[{"id":121,"url":"https://lldev.thespacedevs.com/2.2.0/agencies/121/","name":"SpaceX","featured":true,"type":"Commercial","country_code":"USA","abbrev":"SpX","description":"Space Exploration Technologies Corp., known as SpaceX, is an American aerospace manufacturer and space transport services company headquartered in Hawthorne, California. It was founded in 2002 by entrepreneur Elon Musk with the goal of reducing space transportation costs and enabling the colonization of Mars. SpaceX operates from many pads, on the East Coast of the US they operate from SLC-40 at Cape Canaveral Space Force Station and historic LC-39A at Kennedy Space Center. They also operate from SLC-4E at Vandenberg Space Force Base, California, usually for polar launches. Another launch site is being developed at Boca Chica, Texas.","administrator":"CEO: Elon Musk","founding_year":"2002","launchers":"Falcon | Starship","spacecraft":"Dragon","launch_library_url":null,"total_launch_count":660,"consecutive_successful_launches":145,"successful_launches":645,"failed_launches":15,"pending_launches":122,"consecutive_successful_landings":144,"successful_landings":605,"failed_landings":27,"attempted_landings":631,"info_url":"https://www.spacex.com/","wiki_url":"https://en.wikipedia.org/wiki/SpaceX","logo_url":"https://thespacedevs-dev.nyc3.digitaloceanspaces.com/media/images/spacex_logo_20220826094919.png","image_url":"https://thespacedevs-dev.nyc3.digitaloceanspaces.com/media/images/spacex_image_20190207032501.jpeg","nation_url":"https://thespacedevs-dev.nyc3.digitaloceanspaces.com/media/images/spacex_nation_20230531064544.jpg"}],"info_urls":[],"vid_urls":[]},"pad":{"id":16,"url":"https://lldev.thespacedevs.com/2.2.0/pad/16/","agency_id":null,"name":"Space Launch Complex 4E","description":"Space Launch Complex 4 East (SLC-4E) is a launch site at Vandenberg Space Force Base, California, U.S.\r\n\r\nThe pad was previously used by Atlas and Titan rockets between 1963 and 2005. The pad was built for use by Atlas-Agena rockets, but was later rebuilt to handle Titan rockets.","info_url":null,"wiki_url":"https://en.wikipedia.org/wiki/Vandenberg_Space_Launch_Complex_4#SLC-4E","map_url":"https://www.google.com/maps?q=34.632,-120.611","latitude":"34.632","longitude":"-120.611","location":{"id":11,"url":"https://lldev.thespacedevs.com/2.2.0/location/11/","name":"Vandenberg SFB, CA, USA","country_code":"USA","description":"Vandenberg Space Force Base is a United States Space Force Base in Santa Barbara County, California. Established in 1941, Vandenberg Space Force Base is a space launch base, launching spacecraft from the Western Range, and also performs missile testing. The United States Space Force's Space Launch Delta 30 serves as the host delta for the base, equivalent to an Air Force air base wing. In addition to its military space launch mission, Vandenberg Space Force Base also hosts space launches for civil and commercial space entities, such as NASA and SpaceX.","map_image":"https://thespacedevs-dev.nyc3.digitaloceanspaces.com/media/map_images/location_11_20200803142416.jpg","timezone_name":"America/Los_Angeles","total_launch_count":872,"total_landing_count":33},"country_code":"USA","map_image":"https://thespacedevs-dev.nyc3.digitaloceanspaces.com/media/map_images/pad_16_20200803143532.jpg","total_launch_count":257,"orbital_launch_attempt_count":257},"webcast_live":false,"image":"https://thespacedevs-dev.nyc3.digitaloceanspaces.com/media/images/falcon2520925_image_20221009234147.png","infographic":null,"program":[{"id":25,"url":"https://lldev.thespacedevs.com/2.2.0/program/25/","name":"Starlink","description":"Starlink is a satellite internet constellation operated by American aerospace company SpaceX","agencies":[{"id":121,"url":"https://lldev.thespacedevs.com/2.2.0/agencies/121/","name":"SpaceX","type":"Commercial"}],"image_url":"https://thespacedevs-dev.nyc3.digitaloceanspaces.com/media/images/starlink_program_20231228154508.jpeg","start_date":"2018-02-22T14:17:00Z","end_date":null,"info_url":"https://starlink.com","wiki_url":"https://en.wikipedia.org/wiki/Starlink","mission_patches":[{"id":7,"name":"Space X Starlink Mission Patch","priority":10,"image_url":"https://thespacedevs-dev.nyc3.digitaloceanspaces.com/media/mission_patch_images/space2520x252_mission_patch_20221011205756.png","agency":{"id":121,"url":"https://lldev.thespacedevs.com/2.2.0/agencies/121/","name":"SpaceX","type":"Commercial"}}],"type":{"id":3,"name":"Communication Constellation"}}],"orbital_launch_attempt_count":7257,"location_launch_attempt_count":875,"pad_launch_attempt_count":259,"agency_launch_attempt_count":663,"orbital_launch_attempt_count_year":84,"location_launch_attempt_count_year":23,"pad_launch_attempt_count_year":21,"agency_launch_attempt_count_year":44,"type":"normal"},{"id":"34fbbb9b-2a86-42cc-af02-6cfe1f4236f7","url":"https://lldev.thespacedevs.com/2.2.0/launch/34fbbb9b-2a86-42cc-af02-6cfe1f4236f7/","slug":"smart-dragon-3-unknown-payload","name":"Smart Dragon 3 | Unknown Payload","status":{"id":8,"name":"To Be Confirmed","abbrev":"TBC","description":"Awaiting official confirmation - current date is known with some certainty."},"last_updated":"2026-04-04T00:12:21Z","net":"2026-04-10T11:00:00Z","window_end":"2026-04-10T14:00:00Z","window_start":"2026-04-10T11:00:00Z","net_precision":{"id":2,"name":"Hour","abbrev":"HR","description":"The T-0 is accurate to the hour."},"probability":null,"weather_concerns":null,"holdreason":"","failreason":"","hashtag":null,"launch_service_provider":{"id":272,"url":"https://lldev.thespacedevs.com/2.2.0/agencies/272/","name":"China Rocket Co. Ltd.","type":"Commercial"},"rocket":{"id":8960,"configuration":{"id":484,"url":"https://lldev.thespacedevs.com/2.2.0/config/launcher/484/","name":"Smart Dragon 3","family":"Smart Dragon","full_name":"Smart Dragon 3","variant":""}},"mission":{"id":7555,"name":"Unknown Payload","description":"Details TBD.","launch_designator":null,"type":"Unknown","orbit":{"id":25,"name":"Unknown","abbrev":"N/A"},"agencies":[],"info_urls":[],"vid_urls":[]},"pad":{"id":217,"url":"https://lldev.thespacedevs.com/2.2.0/pad/217/","agency_id":88,"name":"South China Sea (launch location 1)","description":"","info_url":null,"wiki_url":null,"map_url":"https://www.google.com/maps?q=21.283333,112.0","latitude":"21.283333","longitude":"112.0","location":{"id":185,"url":"https://lldev.thespacedevs.com/2.2.0/location/185/","name":"Haiyang Oriental Spaceport","country_code":"CHN","description":"Chinese orbital launch vehicle launches supporting sea port located at Haiyang, Shandong Province, with dedicated piers and rocket/payload processing facilities for Chinese launch vehicles’ sea launches, and (as part of its expansion project) land based launch pads on artificial islands for various test vehicles and launch vehicles of private and government launch services providers.\r\n\r\nIn operation as a remote base of Taiyuan Satellite Launch Center since 2019.","map_image":"https://thespacedevs-dev.nyc3.digitaloceanspaces.com/media/map_images/location_haiyang_oriental_spaceport_20251128181322.jpg","timezone_name":"Asia/Shanghai","total_launch_count":24,"total_landing_count":0},"country_code":"CHN","map_image":"https://thespacedevs-dev.nyc3.digitaloceanspaces.com/media/map_images/pad_bo_run_jiu_zhou_mobile_launch_platform_20231206001303.jpg","total_launch_count":2,"orbital_launch_attempt_count":2},"webcast_live":false,"image":"https://thespacedevs-dev.nyc3.digitaloceanspaces.com/media/images/smart_dragon_3__image_20240925074606.jpg","infographic":null,"program":[],"orbital_launch_attempt_count":7258,"location_launch_attempt_count":25,"pad_launch_attempt_count":3,"agency_launch_attempt_count":12,"orbital_launch_attempt_count_year":85,"location_launch_attempt_count_year":4,"pad_launch_attempt_count_year":1,"agency_launch_attempt_count_year":3,"type":"normal"},{"id":"5352577c-d94a-4e68-a0c8-b0b684621a4f","url":"https://lldev.thespacedevs.com/2.2.0/launch/5352577c-d94a-4e68-a0c8-b0b684621a4f/","slug":"falcon-9-block-5-starlink-group-10-24","name":"Falcon 9 Block 5 | Starlink Group 10-24","status":{"id":1,"name":"Go for Launch","abbrev":"Go","description":"Current T-0 confirmed by official or reliable sources."},"last_updated":"2026-04-04T13:03:54Z","net":"2026-04-12T06:57:00Z","window_end":"2026-04-12T10:57:00Z","window_start":"2026-04-12T06:57:00Z","net_precision":{"id":1,"name":"Minute","abbrev":"MIN","description":"The T-0 is accurate to the minute."},"probability":null,"weather_concerns":null,"holdreason":"","failreason":"","hashtag":null,"launch_service_provider":{"id":121,"url":"https://lldev.thespacedevs.com/2.2.0/agencies/121/","name":"SpaceX","type":"Commercial"},"rocket":{"id":8957,"configuration":{"id":164,"url":"https://lldev.thespacedevs.com/2.2.0/config/launcher/164/","name":"Falcon 9","family":"Falcon","full_name":"Falcon 9 Block 5","variant":"Block 5"}},"mission":{"id":7552,"name":"Starlink Group 10-24","description":"A batch of 29 satellites for the Starlink mega-constellation - SpaceX's project for space-based Internet communication system.","launch_designator":null,"type":"Communications","orbit":{"id":8,"name":"Low Earth Orbit","abbrev":"LEO"},"agencies":[{"id":121,"url":"https://lldev.thespacedevs.com/2.2.0/agencies/121/","name":"SpaceX","featured":true,"type":"Commercial","country_code":"USA","abbrev":"SpX","description":"Space Exploration Technologies Corp., known as SpaceX, is an American aerospace manufacturer and space transport services company headquartered in Hawthorne, California. It was founded in 2002 by entrepreneur Elon Musk with the goal of reducing space transportation costs and enabling the colonization of Mars. SpaceX operates from many pads, on the East Coast of the US they operate from SLC-40 at Cape Canaveral Space Force Station and historic LC-39A at Kennedy Space Center. They also operate from SLC-4E at Vandenberg Space Force Base, California, usually for polar launches. Another launch site is being developed at Boca Chica, Texas.","administrator":"CEO: Elon Musk","founding_year":"2002","launchers":"Falcon | Starship","spacecraft":"Dragon","launch_library_url":null,"total_launch_count":660,"consecutive_successful_launches":145,"successful_launches":645,"failed_launches":15,"pending_launches":122,"consecutive_successful_landings":144,"successful_landings":605,"failed_landings":27,"attempted_landings":631,"info_url":"https://www.spacex.com/","wiki_url":"https://en.wikipedia.org/wiki/SpaceX","logo_url":"https://thespacedevs-dev.nyc3.digitaloceanspaces.com/media/images/spacex_logo_20220826094919.png","image_url":"https://thespacedevs-dev.nyc3.digitaloceanspaces.com/media/images/spacex_image_20190207032501.jpeg","nation_url":"https://thespacedevs-dev.nyc3.digitaloceanspaces.com/media/images/spacex_nation_20230531064544.jpg"}],"info_urls":[],"vid_urls":[]},"pad":{"id":80,"url":"https://lldev.thespacedevs.com/2.2.0/pad/80/","agency_id":121,"name":"Space Launch Complex 40","description":"","info_url":null,"wiki_url":"https://en.wikipedia.org/wiki/Cape_Canaveral_Air_Force_Station_Space_Launch_Complex_40","map_url":"https://www.google.com/maps?q=28.56194122,-80.57735736","latitude":"28.56194122","longitude":"-80.57735736","location":{"id":12,"url":"https://lldev.thespacedevs.com/2.2.0/location/12/","name":"Cape Canaveral SFS, FL, USA","country_code":"USA","description":"Cape Canaveral Space Force Station (CCSFS) is an installation of the United States Space Force's Space Launch Delta 45, located on Cape Canaveral in Brevard County, Florida.","map_image":"https://thespacedevs-dev.nyc3.digitaloceanspaces.com/media/map_images/location_12_20200803142519.jpg","timezone_name":"America/New_York","total_launch_count":1100,"total_landing_count":71},"country_code":"USA","map_image":"https://thespacedevs-dev.nyc3.digitaloceanspaces.com/media/map_images/pad_80_20200803143323.jpg","total_launch_count":376,"orbital_launch_attempt_count":376},"webcast_live":false,"image":"https://thespacedevs-dev.nyc3.digitaloceanspaces.com/media/images/falcon2520925_image_20221009234147.png","infographic":null,"program":[{"id":25,"url":"https://lldev.thespacedevs.com/2.2.0/program/25/","name":"Starlink","description":"Starlink is a satellite internet constellation operated by American aerospace company SpaceX","agencies":[{"id":121,"url":"https://lldev.thespacedevs.com/2.2.0/agencies/121/","name":"SpaceX","type":"Commercial"}],"image_url":"https://thespacedevs-dev.nyc3.digitaloceanspaces.com/media/images/starlink_program_20231228154508.jpeg","start_date":"2018-02-22T14:17:00Z","end_date":null,"info_url":"https://starlink.com","wiki_url":"https://en.wikipedia.org/wiki/Starlink","mission_patches":[{"id":7,"name":"Space X Starlink Mission Patch","priority":10,"image_url":"https://thespacedevs-dev.nyc3.digitaloceanspaces.com/media/mission_patch_images/space2520x252_mission_patch_20221011205756.png","agency":{"id":121,"url":"https://lldev.thespacedevs.com/2.2.0/agencies/121/","name":"SpaceX","type":"Commercial"}}],"type":{"id":3,"name":"Communication Constellation"}}],"orbital_launch_attempt_count":7259,"location_launch_attempt_count":1102,"pad_launch_attempt_count":378,"agency_launch_attempt_count":664,"orbital_launch_attempt_count_year":86,"location_launch_attempt_count_year":26,"pad_launch_attempt_count_year":24,"agency_launch_attempt_count_year":45,"type":"normal"}]}